--temp-output:C:\Users\Administrator\Documents\Visual Studio 2015\Projects\RestartBehavior\RestartBehavior\obj\Release\netcoreapp1.0\
--out:C:\Users\Administrator\Documents\Visual Studio 2015\Projects\RestartBehavior\RestartBehavior\bin\Release\netcoreapp1.0\RestartBehavior.dll
--define:RELEASE
--define:TRACE
--define:NETCOREAPP1_0
--suppress-warning:CS1701
--suppress-warning:CS1702
--suppress-warning:CS1705
--optimize:True
--output-name:RestartBehavior
--file-version:1.0.0.0
--version:1.0.0.0
--informational-version:1.0.0
--target-framework:.NETCoreApp,Version=v1.0
--analyzer:C:\Users\Administrator\.nuget\packages\AWSSDK.CloudWatchEvents\3.3.0.7\analyzers\dotnet\cs\AWSSDK.CloudWatchEvents.CodeAnalysis.dll
--analyzer:C:\Users\Administrator\.nuget\packages\AWSSDK.EC2\3.3.7\analyzers\dotnet\cs\AWSSDK.EC2.CodeAnalysis.dll
--analyzer:C:\Users\Administrator\.nuget\packages\AWSSDK.Lambda\3.3.2.6\analyzers\dotnet\cs\AWSSDK.Lambda.CodeAnalysis.dll
--reference:C:\Users\Administrator\.nuget\packages\Amazon.Lambda.Core\1.0.0\lib\netstandard1.3\Amazon.Lambda.Core.dll
--reference:C:\Users\Administrator\.nuget\packages\Amazon.Lambda.Serialization.Json\1.0.1\lib\netstandard1.3\Amazon.Lambda.Serialization.Json.dll
--reference:C:\Users\Administrator\.nuget\packages\Amazon.Lambda.Tools\1.2.0-preview1\lib\netcoreapp1.0\dotnet-lambda.dll
--reference:C:\Users\Administrator\.nuget\packages\AWSSDK.CloudFormation\3.3.3\lib\netstandard1.3\AWSSDK.CloudFormation.dll
--reference:C:\Users\Administrator\.nuget\packages\AWSSDK.CloudWatchEvents\3.3.0.7\lib\netstandard1.3\AWSSDK.CloudWatchEvents.dll
--reference:C:\Users\Administrator\.nuget\packages\AWSSDK.Core\3.3.8\lib\netstandard1.3\AWSSDK.Core.dll
--reference:C:\Users\Administrator\.nuget\packages\AWSSDK.EC2\3.3.7\lib\netstandard1.3\AWSSDK.EC2.dll
--reference:C:\Users\Administrator\.nuget\packages\AWSSDK.IdentityManagement\3.3.0.3\lib\netstandard1.3\AWSSDK.IdentityManagement.dll
--reference:C:\Users\Administrator\.nuget\packages\AWSSDK.Lambda\3.3.2.6\lib\netstandard1.3\AWSSDK.Lambda.dll
--reference:C:\Users\Administrator\.nuget\packages\AWSSDK.S3\3.3.4\lib\netstandard1.3\AWSSDK.S3.dll
--reference:C:\Users\Administrator\.nuget\packages\Microsoft.CSharp\4.0.1\ref\netstandard1.0\Microsoft.CSharp.dll
--reference:C:\Users\Administrator\.nuget\packages\Microsoft.VisualBasic\10.0.1\ref\netstandard1.1\Microsoft.VisualBasic.dll
--reference:C:\Users\Administrator\.nuget\packages\Microsoft.Win32.Primitives\4.0.1\ref\netstandard1.3\Microsoft.Win32.Primitives.dll
--reference:C:\Users\Administrator\.nuget\packages\Newtonsoft.Json\9.0.1\lib\netstandard1.0\Newtonsoft.Json.dll
--reference:C:\Users\Administrator\.nuget\packages\System.AppContext\4.1.0\ref\netstandard1.6\System.AppContext.dll
--reference:C:\Users\Administrator\.nuget\packages\System.Buffers\4.0.0\lib\netstandard1.1\System.Buffers.dll
--reference:C:\Users\Administrator\.nuget\packages\System.Collections\4.0.11\ref\netstandard1.3\System.Collections.dll
--reference:C:\Users\Administrator\.nuget\packages\System.Collections.Concurrent\4.0.12\ref\netstandard1.3\System.Collections.Concurrent.dll
--reference:C:\Users\Administrator\.nuget\packages\System.Collections.Immutable\1.2.0\lib\netstandard1.0\System.Collections.Immutable.dll
--reference:C:\Users\Administrator\.nuget\packages\System.Collections.NonGeneric\4.0.1\ref\netstandard1.3\System.Collections.NonGeneric.dll
--reference:C:\Users\Administrator\.nuget\packages\System.ComponentModel\4.0.1\ref\netstandard1.0\System.ComponentModel.dll
--reference:C:\Users\Administrator\.nuget\packages\System.ComponentModel.Annotations\4.1.0\ref\netstandard1.4\System.ComponentModel.Annotations.dll
--reference:C:\Users\Administrator\.nuget\packages\System.ComponentModel.Primitives\4.1.0\ref\netstandard1.0\System.ComponentModel.Primitives.dll
--reference:C:\Users\Administrator\.nuget\packages\System.ComponentModel.TypeConverter\4.1.0\ref\netstandard1.5\System.ComponentModel.TypeConverter.dll
--reference:C:\Users\Administrator\.nuget\packages\System.Console\4.0.0\ref\netstandard1.3\System.Console.dll
--reference:C:\Users\Administrator\.nuget\packages\System.Diagnostics.Debug\4.0.11\ref\netstandard1.3\System.Diagnostics.Debug.dll
--reference:C:\Users\Administrator\.nuget\packages\System.Diagnostics.DiagnosticSource\4.0.0\lib\netstandard1.3\System.Diagnostics.DiagnosticSource.dll
--reference:C:\Users\Administrator\.nuget\packages\System.Diagnostics.Process\4.1.0\ref\netstandard1.4\System.Diagnostics.Process.dll
--reference:C:\Users\Administrator\.nuget\packages\System.Diagnostics.Tools\4.0.1\ref\netstandard1.0\System.Diagnostics.Tools.dll
--reference:C:\Users\Administrator\.nuget\packages\System.Diagnostics.Tracing\4.1.0\ref\netstandard1.5\System.Diagnostics.Tracing.dll
--reference:C:\Users\Administrator\.nuget\packages\System.Dynamic.Runtime\4.0.11\ref\netstandard1.3\System.Dynamic.Runtime.dll
--reference:C:\Users\Administrator\.nuget\packages\System.Globalization\4.0.11\ref\netstandard1.3\System.Globalization.dll
--reference:C:\Users\Administrator\.nuget\packages\System.Globalization.Calendars\4.0.1\ref\netstandard1.3\System.Globalization.Calendars.dll
--reference:C:\Users\Administrator\.nuget\packages\System.Globalization.Extensions\4.0.1\ref\netstandard1.3\System.Globalization.Extensions.dll
--reference:C:\Users\Administrator\.nuget\packages\System.IO\4.1.0\ref\netstandard1.5\System.IO.dll
--reference:C:\Users\Administrator\.nuget\packages\System.IO.Compression\4.1.0\ref\netstandard1.3\System.IO.Compression.dll
--reference:C:\Users\Administrator\.nuget\packages\System.IO.Compression.ZipFile\4.0.1\ref\netstandard1.3\System.IO.Compression.ZipFile.dll
--reference:C:\Users\Administrator\.nuget\packages\System.IO.FileSystem\4.0.1\ref\netstandard1.3\System.IO.FileSystem.dll
--reference:C:\Users\Administrator\.nuget\packages\System.IO.FileSystem.Primitives\4.0.1\ref\netstandard1.3\System.IO.FileSystem.Primitives.dll
--reference:C:\Users\Administrator\.nuget\packages\System.IO.FileSystem.Watcher\4.0.0\ref\netstandard1.3\System.IO.FileSystem.Watcher.dll
--reference:C:\Users\Administrator\.nuget\packages\System.IO.MemoryMappedFiles\4.0.0\ref\netstandard1.3\System.IO.MemoryMappedFiles.dll
--reference:C:\Users\Administrator\.nuget\packages\System.IO.UnmanagedMemoryStream\4.0.1\ref\netstandard1.3\System.IO.UnmanagedMemoryStream.dll
--reference:C:\Users\Administrator\.nuget\packages\System.Linq\4.1.0\ref\netstandard1.6\System.Linq.dll
--reference:C:\Users\Administrator\.nuget\packages\System.Linq.Expressions\4.1.0\ref\netstandard1.6\System.Linq.Expressions.dll
--reference:C:\Users\Administrator\.nuget\packages\System.Linq.Parallel\4.0.1\ref\netstandard1.1\System.Linq.Parallel.dll
--reference:C:\Users\Administrator\.nuget\packages\System.Linq.Queryable\4.0.1\ref\netstandard1.0\System.Linq.Queryable.dll
--reference:C:\Users\Administrator\.nuget\packages\System.Net.Http\4.1.0\ref\netstandard1.3\System.Net.Http.dll
--reference:C:\Users\Administrator\.nuget\packages\System.Net.NameResolution\4.0.0\ref\netstandard1.3\System.Net.NameResolution.dll
--reference:C:\Users\Administrator\.nuget\packages\System.Net.Primitives\4.0.11\ref\netstandard1.3\System.Net.Primitives.dll
--reference:C:\Users\Administrator\.nuget\packages\System.Net.Requests\4.0.11\ref\netstandard1.3\System.Net.Requests.dll
--reference:C:\Users\Administrator\.nuget\packages\System.Net.Security\4.0.0\ref\netstandard1.3\System.Net.Security.dll
--reference:C:\Users\Administrator\.nuget\packages\System.Net.Sockets\4.1.0\ref\netstandard1.3\System.Net.Sockets.dll
--reference:C:\Users\Administrator\.nuget\packages\System.Net.WebHeaderCollection\4.0.1\ref\netstandard1.3\System.Net.WebHeaderCollection.dll
--reference:C:\Users\Administrator\.nuget\packages\System.Numerics.Vectors\4.1.1\ref\netstandard1.0\System.Numerics.Vectors.dll
--reference:C:\Users\Administrator\.nuget\packages\System.ObjectModel\4.0.12\ref\netstandard1.3\System.ObjectModel.dll
--reference:C:\Users\Administrator\.nuget\packages\System.Reflection\4.1.0\ref\netstandard1.5\System.Reflection.dll
--reference:C:\Users\Administrator\.nuget\packages\System.Reflection.DispatchProxy\4.0.1\ref\netstandard1.3\System.Reflection.DispatchProxy.dll
--reference:C:\Users\Administrator\.nuget\packages\System.Reflection.Extensions\4.0.1\ref\netstandard1.0\System.Reflection.Extensions.dll
--reference:C:\Users\Administrator\.nuget\packages\System.Reflection.Metadata\1.3.0\lib\netstandard1.1\System.Reflection.Metadata.dll
--reference:C:\Users\Administrator\.nuget\packages\System.Reflection.Primitives\4.0.1\ref\netstandard1.0\System.Reflection.Primitives.dll
--reference:C:\Users\Administrator\.nuget\packages\System.Reflection.TypeExtensions\4.1.0\ref\netstandard1.5\System.Reflection.TypeExtensions.dll
--reference:C:\Users\Administrator\.nuget\packages\System.Resources.Reader\4.0.0\lib\netstandard1.0\System.Resources.Reader.dll
--reference:C:\Users\Administrator\.nuget\packages\System.Resources.ResourceManager\4.0.1\ref\netstandard1.0\System.Resources.ResourceManager.dll
--reference:C:\Users\Administrator\.nuget\packages\System.Runtime\4.1.0\ref\netstandard1.5\System.Runtime.dll
--reference:C:\Users\Administrator\.nuget\packages\System.Runtime.Extensions\4.1.0\ref\netstandard1.5\System.Runtime.Extensions.dll
--reference:C:\Users\Administrator\.nuget\packages\System.Runtime.Handles\4.0.1\ref\netstandard1.3\System.Runtime.Handles.dll
--reference:C:\Users\Administrator\.nuget\packages\System.Runtime.InteropServices\4.1.0\ref\netstandard1.5\System.Runtime.InteropServices.dll
--reference:C:\Users\Administrator\.nuget\packages\System.Runtime.InteropServices.RuntimeInformation\4.0.0\ref\netstandard1.1\System.Runtime.InteropServices.RuntimeInformation.dll
--reference:C:\Users\Administrator\.nuget\packages\System.Runtime.Loader\4.0.0\ref\netstandard1.5\System.Runtime.Loader.dll
--reference:C:\Users\Administrator\.nuget\packages\System.Runtime.Numerics\4.0.1\ref\netstandard1.1\System.Runtime.Numerics.dll
--reference:C:\Users\Administrator\.nuget\packages\System.Runtime.Serialization.Primitives\4.1.1\ref\netstandard1.3\System.Runtime.Serialization.Primitives.dll
--reference:C:\Users\Administrator\.nuget\packages\System.Security.Cryptography.Algorithms\4.2.0\ref\netstandard1.6\System.Security.Cryptography.Algorithms.dll
--reference:C:\Users\Administrator\.nuget\packages\System.Security.Cryptography.Csp\4.0.0\ref\netstandard1.3\System.Security.Cryptography.Csp.dll
--reference:C:\Users\Administrator\.nuget\packages\System.Security.Cryptography.Encoding\4.0.0\ref\netstandard1.3\System.Security.Cryptography.Encoding.dll
--reference:C:\Users\Administrator\.nuget\packages\System.Security.Cryptography.Primitives\4.0.0\ref\netstandard1.3\System.Security.Cryptography.Primitives.dll
--reference:C:\Users\Administrator\.nuget\packages\System.Security.Cryptography.X509Certificates\4.1.0\ref\netstandard1.4\System.Security.Cryptography.X509Certificates.dll
--reference:C:\Users\Administrator\.nuget\packages\System.Security.Principal\4.0.1\ref\netstandard1.0\System.Security.Principal.dll
--reference:C:\Users\Administrator\.nuget\packages\System.Text.Encoding\4.0.11\ref\netstandard1.3\System.Text.Encoding.dll
--reference:C:\Users\Administrator\.nuget\packages\System.Text.Encoding.Extensions\4.0.11\ref\netstandard1.3\System.Text.Encoding.Extensions.dll
--reference:C:\Users\Administrator\.nuget\packages\System.Text.RegularExpressions\4.1.0\ref\netstandard1.6\System.Text.RegularExpressions.dll
--reference:C:\Users\Administrator\.nuget\packages\System.Threading\4.0.11\ref\netstandard1.3\System.Threading.dll
--reference:C:\Users\Administrator\.nuget\packages\System.Threading.Tasks\4.0.11\ref\netstandard1.3\System.Threading.Tasks.dll
--reference:C:\Users\Administrator\.nuget\packages\System.Threading.Tasks.Dataflow\4.6.0\lib\netstandard1.1\System.Threading.Tasks.Dataflow.dll
--reference:C:\Users\Administrator\.nuget\packages\System.Threading.Tasks.Extensions\4.0.0\lib\netstandard1.0\System.Threading.Tasks.Extensions.dll
--reference:C:\Users\Administrator\.nuget\packages\System.Threading.Tasks.Parallel\4.0.1\ref\netstandard1.1\System.Threading.Tasks.Parallel.dll
--reference:C:\Users\Administrator\.nuget\packages\System.Threading.Thread\4.0.0\ref\netstandard1.3\System.Threading.Thread.dll
--reference:C:\Users\Administrator\.nuget\packages\System.Threading.ThreadPool\4.0.10\ref\netstandard1.3\System.Threading.ThreadPool.dll
--reference:C:\Users\Administrator\.nuget\packages\System.Threading.Timer\4.0.1\ref\netstandard1.2\System.Threading.Timer.dll
--reference:C:\Users\Administrator\.nuget\packages\System.Xml.ReaderWriter\4.0.11\ref\netstandard1.3\System.Xml.ReaderWriter.dll
--reference:C:\Users\Administrator\.nuget\packages\System.Xml.XDocument\4.0.11\ref\netstandard1.3\System.Xml.XDocument.dll
C:\Users\Administrator\Documents\Visual Studio 2015\Projects\RestartBehavior\RestartBehavior\RestartBehavior.cs
C:\Users\Administrator\Documents\Visual Studio 2015\Projects\RestartBehavior\RestartBehavior\Properties\AssemblyInfo.cs
